<svg width="375" height="110" viewBox="0 0 375 110" fill="none" xmlns="http://www.w3.org/2000/svg">
<g filter="url(#filter0_d_4191_4393)">
<path d="M121.662 24.5C66.789 25.7 17.6903 11.3333 0 4V110H375V4C347.964 23.5 276.869 24 255.34 24C233.812 24 229.806 27 229.806 35.5C229.806 44 234.385 67.1784 207.777 70.5C155.708 77 145.54 59.5 144.693 48.5C143.692 35.5 146.195 24.5 121.662 24.5Z" fill="white"/>
</g>
<defs>
<filter id="filter0_d_4191_4393" x="-5.5" y="0" width="383" height="114" filterUnits="userSpaceOnUse" color-interpolation-filters="sRGB">
<feFlood flood-opacity="0" result="BackgroundImageFix"/>
<feColorMatrix in="SourceAlpha" type="matrix" values="0 0 0 0 0 0 0 0 0 0 0 0 0 0 0 0 0 0 127 0" result="hardAlpha"/>
<feOffset dx="-1.5"/>
<feGaussianBlur stdDeviation="2"/>
<feComposite in2="hardAlpha" operator="out"/>
<feColorMatrix type="matrix" values="0 0 0 0 0.513021 0 0 0 0 0.666927 0 0 0 0 0.820833 0 0 0 0.12 0"/>
<feBlend mode="normal" in2="BackgroundImageFix" result="effect1_dropShadow_4191_4393"/>
<feBlend mode="normal" in="SourceGraphic" in2="effect1_dropShadow_4191_4393" result="shape"/>
</filter>
</defs>
</svg>
